\relax 
\providecommand\hyper@newdestlabel[2]{}
\FN@pp@footnotehinttrue 
\@writefile{toc}{\contentsline {chapter}{\numberline {4}Data sets And Comparison of Performance}{20}{chapter.4}\protected@file@percent }
\@writefile{lof}{\addvspace {10\p@ }}
\@writefile{lot}{\addvspace {10\p@ }}
\@writefile{toc}{\contentsline {section}{\numberline {4.1}Datasets}{20}{section.4.1}\protected@file@percent }
\@writefile{toc}{\contentsline {subsection}{\numberline {4.1.1}HAPT (Smartphone-Based Recognition of Human Activities and Postural Transitions) Data Set}{20}{subsection.4.1.1}\protected@file@percent }
\@writefile{lot}{\contentsline {table}{\numberline {4.1}{\ignorespaces HAPT}}{21}{table.caption.6}\protected@file@percent }
\@writefile{toc}{\contentsline {subsection}{\numberline {4.1.2}Gas sensors for home activity monitoring Data Set }{21}{subsection.4.1.2}\protected@file@percent }
\@writefile{lot}{\contentsline {table}{\numberline {4.2}{\ignorespaces Gas sensor}}{21}{table.caption.7}\protected@file@percent }
\@writefile{toc}{\contentsline {subsection}{\numberline {4.1.3}Weight Lifting Exercises monitored with Inertial Measurement Units Data Set }{22}{subsection.4.1.3}\protected@file@percent }
\@writefile{lot}{\contentsline {table}{\numberline {4.3}{\ignorespaces Weight Lifting}}{22}{table.caption.8}\protected@file@percent }
\@writefile{toc}{\contentsline {subsection}{\numberline {4.1.4}SECOM Data Set }{22}{subsection.4.1.4}\protected@file@percent }
\@writefile{lot}{\contentsline {table}{\numberline {4.4}{\ignorespaces SECOM}}{23}{table.caption.9}\protected@file@percent }
\@writefile{toc}{\contentsline {section}{\numberline {4.2}Experimental Analysis}{23}{section.4.2}\protected@file@percent }
\@writefile{lot}{\contentsline {table}{\numberline {4.5}{\ignorespaces Accuracy for Decision Tree (ID3) Algorithm}}{24}{table.caption.10}\protected@file@percent }
\newlabel{ID3}{{4.5}{24}{Accuracy for Decision Tree (ID3) Algorithm}{table.caption.10}{}}
\@writefile{lof}{\contentsline {figure}{\numberline {4.1}{\ignorespaces id3}}{24}{figure.4.1}\protected@file@percent }
\newlabel{id3}{{4.1}{24}{id3}{figure.4.1}{}}
\@writefile{lot}{\contentsline {table}{\numberline {4.6}{\ignorespaces Accuracy for Bagging Algorithm}}{25}{table.caption.11}\protected@file@percent }
\@writefile{lof}{\contentsline {figure}{\numberline {4.2}{\ignorespaces Bagging}}{25}{figure.4.2}\protected@file@percent }
\newlabel{Bagging}{{4.2}{25}{Bagging}{figure.4.2}{}}
\@writefile{lot}{\contentsline {table}{\numberline {4.7}{\ignorespaces Accuracy for Random Forest Algorithm}}{25}{table.caption.12}\protected@file@percent }
\FN@pp@footnotehinttrue 
\@writefile{lof}{\contentsline {figure}{\numberline {4.3}{\ignorespaces RandomF}}{26}{figure.4.3}\protected@file@percent }
\newlabel{RandomF}{{4.3}{26}{RandomF}{figure.4.3}{}}
\@writefile{lof}{\contentsline {figure}{\numberline {4.4}{\ignorespaces Adaboost}}{26}{figure.4.4}\protected@file@percent }
\newlabel{Adaboost}{{4.4}{26}{Adaboost}{figure.4.4}{}}
\@writefile{lof}{\contentsline {figure}{\numberline {4.5}{\ignorespaces vot}}{26}{figure.4.5}\protected@file@percent }
\newlabel{vot}{{4.5}{26}{vot}{figure.4.5}{}}
\@writefile{lof}{\contentsline {figure}{\numberline {4.6}{\ignorespaces logistic}}{26}{figure.4.6}\protected@file@percent }
\newlabel{logistic}{{4.6}{26}{logistic}{figure.4.6}{}}
\@writefile{lot}{\contentsline {table}{\numberline {4.8}{\ignorespaces Accuracy for AdaBoost Algorithm}}{27}{table.caption.13}\protected@file@percent }
\@writefile{lot}{\contentsline {table}{\numberline {4.9}{\ignorespaces Accuracy for Voting Algorithm(SVM, C4.5, Logistic Regression)}}{27}{table.caption.14}\protected@file@percent }
\@writefile{lof}{\contentsline {figure}{\numberline {4.7}{\ignorespaces cart}}{27}{figure.4.7}\protected@file@percent }
\newlabel{cart}{{4.7}{27}{cart}{figure.4.7}{}}
\@writefile{lot}{\contentsline {table}{\numberline {4.10}{\ignorespaces Accuracy for Logistic Regression}}{27}{table.caption.15}\protected@file@percent }
\@writefile{lot}{\contentsline {table}{\numberline {4.11}{\ignorespaces Accuracy for Decission Tree (Cart) Algorithm}}{28}{table.caption.16}\protected@file@percent }
\@writefile{lot}{\contentsline {table}{\numberline {4.12}{\ignorespaces Accuracy for SVM Algorithm}}{28}{table.caption.17}\protected@file@percent }
\@setckpt{chapter_4/Results_ch4}{
\setcounter{page}{29}
\setcounter{equation}{0}
\setcounter{enumi}{7}
\setcounter{enumii}{0}
\setcounter{enumiii}{0}
\setcounter{enumiv}{0}
\setcounter{footnote}{0}
\setcounter{mpfootnote}{0}
\setcounter{part}{0}
\setcounter{chapter}{4}
\setcounter{section}{2}
\setcounter{subsection}{0}
\setcounter{subsubsection}{0}
\setcounter{paragraph}{0}
\setcounter{subparagraph}{0}
\setcounter{figure}{7}
\setcounter{table}{12}
\setcounter{float@type}{8}
\setcounter{parentequation}{0}
\setcounter{algorithm}{5}
\setcounter{ALC@unique}{65}
\setcounter{ALC@line}{6}
\setcounter{ALC@rem}{0}
\setcounter{ALC@depth}{0}
\setcounter{blindtext}{1}
\setcounter{Blindtext}{5}
\setcounter{blind@countparstart}{0}
\setcounter{blindlist}{0}
\setcounter{blindlistlevel}{0}
\setcounter{blindlist@level}{0}
\setcounter{blind@listcount}{0}
\setcounter{blind@levelcount}{0}
\setcounter{blind@randomcount}{0}
\setcounter{blind@randommax}{0}
\setcounter{blind@pangramcount}{0}
\setcounter{blind@pangrammax}{0}
\setcounter{caption@flags}{2}
\setcounter{ContinuedFloat}{0}
\setcounter{pp@next@reset}{1}
\setcounter{@fnserial}{0}
\setcounter{NAT@ctr}{0}
\setcounter{Item}{13}
\setcounter{Hfootnote}{0}
\setcounter{bookmark@seq@number}{31}
\setcounter{section@level}{1}
}
