\relax 
\providecommand\hyper@newdestlabel[2]{}
\providecommand\HyperFirstAtBeginDocument{\AtBeginDocument}
\HyperFirstAtBeginDocument{\ifx\hyper@anchor\@undefined
\global\let\oldcontentsline\contentsline
\gdef\contentsline#1#2#3#4{\oldcontentsline{#1}{#2}{#3}}
\global\let\oldnewlabel\newlabel
\gdef\newlabel#1#2{\newlabelxx{#1}#2}
\gdef\newlabelxx#1#2#3#4#5#6{\oldnewlabel{#1}{{#2}{#3}}}
\AtEndDocument{\ifx\hyper@anchor\@undefined
\let\contentsline\oldcontentsline
\let\newlabel\oldnewlabel
\fi}
\fi}
\global\let\hyper@last\relax 
\gdef\HyperFirstAtBeginDocument#1{#1}
\providecommand\HyField@AuxAddToFields[1]{}
\providecommand\HyField@AuxAddToCoFields[2]{}
\FN@pp@footnotehinttrue 
\babel@aux{english}{}
\providecommand {\FN@pp@footnotehinttrue }{}
\providecommand {\FN@pp@footnote@aux }[2]{}
\@input{0_frontmatter/abstract.aux}
\FN@pp@footnotehinttrue 
\@input{0_frontmatter/dedication.aux}
\FN@pp@footnotehinttrue 
\@input{0_frontmatter/acknowledgement.aux}
\FN@pp@footnotehinttrue 
\FN@pp@footnotehinttrue 
\FN@pp@footnotehinttrue 
\@writefile{toc}{\contentsline {chapter}{List of Figures}{vii}{chapter*.2}\protected@file@percent }
\FN@pp@footnotehinttrue 
\@writefile{toc}{\contentsline {chapter}{List of Tables}{viii}{chapter*.3}\protected@file@percent }
\FN@pp@footnotehinttrue 
\FN@pp@footnotehinttrue 
\@input{chapter_1/Introduction_ch1.aux}
\FN@pp@footnotehinttrue 
\@input{chapter_2/Related-Work_ch2.aux}
\FN@pp@footnotehinttrue 
\@input{chapter_3/Proposed-Method_ch3.aux}
\FN@pp@footnotehinttrue 
\@input{chapter_4/Results_ch4.aux}
\FN@pp@footnotehinttrue 
\@input{chapter_5/Conclusion_ch5.aux}
\FN@pp@footnotehinttrue 
\bibstyle{6_backmatter/IEEEtran}
\bibdata{6_backmatter/Farid_bib}
\bibcite{liu2002feature}{{1}{}{{}}{{}}}
\bibcite{das2001filters}{{2}{}{{}}{{}}}
\bibcite{xing2001feature}{{3}{}{{}}{{}}}
\bibcite{hall1999feature}{{4}{}{{}}{{}}}
\bibcite{al2009dependency}{{5}{}{{}}{{}}}
\bibcite{bonev2007novel}{{6}{}{{}}{{}}}
\bibcite{john1994irrelevant}{{7}{}{{}}{{}}}
\bibcite{hsu2010feature}{{8}{}{{}}{{}}}
\bibcite{beretta2016nearest}{{9}{}{{}}{{}}}
\bibcite{zeng2015novel}{{10}{}{{}}{{}}}
\FN@pp@footnotehinttrue 
\@writefile{toc}{\contentsline {chapter}{Bibliography}{30}{chapter*.18}\protected@file@percent }
\bibcite{maji2011rough}{{11}{}{{}}{{}}}
\bibcite{jiang2015relative}{{12}{}{{}}{{}}}
\bibcite{sebban2002hybrid}{{13}{}{{}}{{}}}
\bibcite{yan2011correntropy}{{14}{}{{}}{{}}}
\bibcite{hartigan1972direct}{{15}{}{{}}{{}}}
\bibcite{frey2007clustering}{{16}{}{{}}{{}}}
\bibcite{vasudevan2014iterative}{{17}{}{{}}{{}}}
\bibcite{jakhar2018predication}{{18}{}{{}}{{}}}
\bibcite{diaz2006gene}{{19}{}{{}}{{}}}
\bibcite{belgiu2016random}{{20}{}{{}}{{}}}
\bibcite{lawrence2006muscarinic}{{21}{}{{}}{{}}}
\bibcite{thiebault2018m2b}{{22}{}{{}}{{}}}
\bibcite{svetnik2004application}{{23}{}{{}}{{}}}
\bibcite{liaw2002classification}{{24}{}{{}}{{}}}
\bibcite{hamby2008prediction}{{25}{}{{}}{{}}}
\bibcite{khalilia2011predicting}{{26}{}{{}}{{}}}
\bibcite{basha2018impact}{{27}{}{{}}{{}}}
\bibcite{ceylan2018feature}{{28}{}{{}}{{}}}
\bibcite{lango2018multi}{{29}{}{{}}{{}}}
\bibcite{abdallah2018fault}{{30}{}{{}}{{}}}
\@writefile{toc}{\vspace  {2em}}
\@writefile{toc}{\vspace  {2em}}
\FN@pp@footnotehinttrue 
\providecommand\NAT@force@numbers{}\NAT@force@numbers
