\BOOKMARK [0][]{chapter*.2}{List of Figures}{}% 1
\BOOKMARK [0][]{chapter*.3}{List of Tables}{}% 2
\BOOKMARK [0][]{chapter.1}{1 Introduction}{}% 3
\BOOKMARK [1][]{section.1.1}{1.1 Motivation}{chapter.1}% 4
\BOOKMARK [1][]{section.1.2}{1.2 Objectives of the Thesis}{chapter.1}% 5
\BOOKMARK [1][]{section.1.3}{1.3 Organization of the Thesis}{chapter.1}% 6
\BOOKMARK [0][]{chapter.2}{2 Related Work}{}% 7
\BOOKMARK [0][]{chapter.3}{3 Proposed Method}{}% 8
\BOOKMARK [1][]{section.3.1}{3.1 Data Preprocessing}{chapter.3}% 9
\BOOKMARK [2][]{subsection.3.1.1}{3.1.1 Missing value Handling By KNN Imputation}{section.3.1}% 10
\BOOKMARK [1][]{section.3.2}{3.2 Correlation Feature Grouping Method}{chapter.3}% 11
\BOOKMARK [2][]{subsection.3.2.1}{3.2.1 Find Covariance Matrices Calculation for Each Sample}{section.3.2}% 12
\BOOKMARK [2][]{subsection.3.2.2}{3.2.2 Affinity Propagation Clustering}{section.3.2}% 13
\BOOKMARK [2][]{subsection.3.2.3}{3.2.3 Random Features from Cluster Group}{section.3.2}% 14
\BOOKMARK [1][]{section.3.3}{3.3 Co-relation base feature selection with Clustering}{chapter.3}% 15
\BOOKMARK [2][]{subsection.3.3.1}{3.3.1 Decision Tree}{section.3.3}% 16
\BOOKMARK [3][]{subsubsection.3.3.1.1}{3.3.1.1 Decision Tree \(ID3 Algorithm\)}{subsection.3.3.1}% 17
\BOOKMARK [3][]{subsubsection.3.3.1.2}{3.3.1.2 Decision tree \(CART\)}{subsection.3.3.1}% 18
\BOOKMARK [2][]{subsection.3.3.2}{3.3.2 Random Forest}{section.3.3}% 19
\BOOKMARK [2][]{subsection.3.3.3}{3.3.3 AdaBoost Algorithm}{section.3.3}% 20
\BOOKMARK [2][]{subsection.3.3.4}{3.3.4 Voting Algorithm\(Svm, C4.5, Logistic Regression\)}{section.3.3}% 21
\BOOKMARK [2][]{subsection.3.3.5}{3.3.5 Logistic Regression}{section.3.3}% 22
\BOOKMARK [2][]{subsection.3.3.6}{3.3.6 Bagging Algorithm}{section.3.3}% 23
\BOOKMARK [2][]{subsection.3.3.7}{3.3.7 SVM algorithm}{section.3.3}% 24
\BOOKMARK [0][]{chapter.4}{4 Data sets And Comparison of Performance}{}% 25
\BOOKMARK [1][]{section.4.1}{4.1 Datasets}{chapter.4}% 26
\BOOKMARK [2][]{subsection.4.1.1}{4.1.1 HAPT \(Smartphone-Based Recognition of Human Activities and Postural Transitions\) Data Set}{section.4.1}% 27
\BOOKMARK [2][]{subsection.4.1.2}{4.1.2 Gas sensors for home activity monitoring Data Set }{section.4.1}% 28
\BOOKMARK [2][]{subsection.4.1.3}{4.1.3 Weight Lifting Exercises monitored with Inertial Measurement Units Data Set }{section.4.1}% 29
\BOOKMARK [2][]{subsection.4.1.4}{4.1.4 SECOM Data Set }{section.4.1}% 30
\BOOKMARK [1][]{section.4.2}{4.2 Experimental Analysis}{chapter.4}% 31
\BOOKMARK [0][]{chapter.5}{5 Conclusions}{}% 32
\BOOKMARK [1][]{section.5.1}{5.1 Conclusions}{chapter.5}% 33
\BOOKMARK [0][]{chapter*.18}{Bibliography}{}% 34
