\relax 
\providecommand\hyper@newdestlabel[2]{}
\citation{hall1999feature}
\citation{al2009dependency}
\citation{bonev2007novel}
\citation{john1994irrelevant}
\citation{hsu2010feature}
\citation{hall1999feature}
\FN@pp@footnotehinttrue 
\@writefile{toc}{\contentsline {chapter}{\numberline {2}Related Work}{4}{chapter.2}\protected@file@percent }
\@writefile{lof}{\addvspace {10\p@ }}
\@writefile{lot}{\addvspace {10\p@ }}
\@writefile{brf}{\backcite{hall1999feature}{{4}{2}{chapter.2}}}
\@writefile{brf}{\backcite{al2009dependency}{{4}{2}{chapter.2}}}
\@writefile{brf}{\backcite{bonev2007novel}{{4}{2}{chapter.2}}}
\@writefile{brf}{\backcite{john1994irrelevant}{{4}{2}{chapter.2}}}
\@writefile{brf}{\backcite{hsu2010feature}{{4}{2}{chapter.2}}}
\@writefile{brf}{\backcite{hall1999feature}{{4}{2}{chapter.2}}}
\FN@pp@footnotehinttrue 
\@setckpt{chapter_2/Related-Work_ch2}{
\setcounter{page}{5}
\setcounter{equation}{0}
\setcounter{enumi}{0}
\setcounter{enumii}{0}
\setcounter{enumiii}{0}
\setcounter{enumiv}{0}
\setcounter{footnote}{0}
\setcounter{mpfootnote}{0}
\setcounter{part}{0}
\setcounter{chapter}{2}
\setcounter{section}{0}
\setcounter{subsection}{0}
\setcounter{subsubsection}{0}
\setcounter{paragraph}{0}
\setcounter{subparagraph}{0}
\setcounter{figure}{0}
\setcounter{table}{0}
\setcounter{float@type}{8}
\setcounter{parentequation}{0}
\setcounter{algorithm}{0}
\setcounter{ALC@unique}{0}
\setcounter{ALC@line}{0}
\setcounter{ALC@rem}{0}
\setcounter{ALC@depth}{0}
\setcounter{blindtext}{1}
\setcounter{Blindtext}{5}
\setcounter{blind@countparstart}{0}
\setcounter{blindlist}{0}
\setcounter{blindlistlevel}{0}
\setcounter{blindlist@level}{0}
\setcounter{blind@listcount}{0}
\setcounter{blind@levelcount}{0}
\setcounter{blind@randomcount}{0}
\setcounter{blind@randommax}{0}
\setcounter{blind@pangramcount}{0}
\setcounter{blind@pangrammax}{0}
\setcounter{caption@flags}{0}
\setcounter{ContinuedFloat}{0}
\setcounter{pp@next@reset}{1}
\setcounter{@fnserial}{0}
\setcounter{NAT@ctr}{0}
\setcounter{Item}{0}
\setcounter{Hfootnote}{0}
\setcounter{bookmark@seq@number}{7}
\setcounter{section@level}{1}
}
